<?xml version="1.0" encoding="UTF-8" standalone="no"?>
<!-- Created with Inkscape (http://www.inkscape.org/) -->

<svg
   xmlns:dc="http://purl.org/dc/elements/1.1/"
   xmlns:cc="http://creativecommons.org/ns#"
   xmlns:rdf="http://www.w3.org/1999/02/22-rdf-syntax-ns#"
   xmlns:svg="http://www.w3.org/2000/svg"
   xmlns="http://www.w3.org/2000/svg"
   xmlns:sodipodi="http://sodipodi.sourceforge.net/DTD/sodipodi-0.dtd"
   xmlns:inkscape="http://www.inkscape.org/namespaces/inkscape"
   width="210mm"
   height="297mm"
   viewBox="0 0 744.09448819 1052.3622047"
   id="svg2"
   version="1.1"
   inkscape:version="0.91 r13725"
   sodipodi:docname="card.svg"
   inkscape:export-filename="D:\dev\brbois\personal\card.png"
   inkscape:export-xdpi="90"
   inkscape:export-ydpi="90">
  <defs
     id="defs4" />
  <sodipodi:namedview
     id="base"
     pagecolor="#ffffff"
     bordercolor="#666666"
     borderopacity="1.0"
     inkscape:pageopacity="0.0"
     inkscape:pageshadow="2"
     inkscape:zoom="4.9871306"
     inkscape:cx="48.767677"
     inkscape:cy="76.586749"
     inkscape:document-units="px"
     inkscape:current-layer="layer1"
     showgrid="false"
     inkscape:window-width="1080"
     inkscape:window-height="1867"
     inkscape:window-x="1912"
     inkscape:window-y="-8"
     inkscape:window-maximized="1" />
  <metadata
     id="metadata7">
    <rdf:RDF>
      <cc:Work
         rdf:about="">
        <dc:format>image/svg+xml</dc:format>
        <dc:type
           rdf:resource="http://purl.org/dc/dcmitype/StillImage" />
        <dc:title />
      </cc:Work>
    </rdf:RDF>
  </metadata>
  <g
     inkscape:label="Layer 1"
     inkscape:groupmode="layer"
     id="layer1">
    <rect
       style="fill:#8f0000;fill-opacity:0.94219654;stroke:#c10000;stroke-width:0;stroke-linejoin:round;stroke-miterlimit:4;stroke-dasharray:none;stroke-opacity:1"
       id="rect4136"
       width="90"
       height="120"
       x="4.9999999e-006"
       y="932.36218" />
    <rect
       style="fill:#009e00;fill-opacity:0.94219654;stroke:#c10000;stroke-width:0;stroke-linejoin:round;stroke-miterlimit:4;stroke-dasharray:none;stroke-opacity:1"
       id="rect4138"
       width="80"
       height="49.999992"
       x="5.0000048"
       y="940.36218" />
    <path
       style="fill:#009e00;fill-opacity:0.94219654;stroke:#c10000;stroke-width:0;stroke-linejoin:round;stroke-miterlimit:4;stroke-dasharray:none;stroke-opacity:1"
       id="path4140"
       sodipodi:type="arc"
       sodipodi:cx="84"
       sodipodi:cy="936.36218"
       sodipodi:rx="2.9999943"
       sodipodi:ry="2.9999907"
       sodipodi:start="0"
       sodipodi:end="6.2619097"
       sodipodi:open="true"
       d="m 86.999994,936.36218 a 2.9999943,2.9999907 0 0 1 -2.984037,2.99995 2.9999943,2.9999907 0 0 1 -3.015782,-2.96803 2.9999943,2.9999907 0 0 1 2.951957,-3.03153 2.9999943,2.9999907 0 0 1 3.047183,2.93579" />
    <rect
       style="fill:#009e00;fill-opacity:0.94219654;stroke:#c10000;stroke-width:0;stroke-linejoin:round;stroke-miterlimit:4;stroke-dasharray:none;stroke-opacity:1"
       id="rect4142"
       width="79.999992"
       height="5.9999919"
       x="5.0000038"
       y="993.3623" />
    <rect
       style="fill:#009e00;fill-opacity:0.94219654;stroke:#c10000;stroke-width:0;stroke-linejoin:round;stroke-miterlimit:4;stroke-dasharray:none;stroke-opacity:1"
       id="rect4138-5"
       width="80"
       height="39.999989"
       x="5.0000048"
       y="1002.3622" />
    <rect
       style="fill:#009e00;fill-opacity:0.94219654;stroke:#c10000;stroke-width:0;stroke-linejoin:round;stroke-miterlimit:4;stroke-dasharray:none;stroke-opacity:1"
       id="rect4142-1"
       width="31.99999"
       height="5.99999"
       x="52.000004"
       y="1044.3623" />
    <text
       xml:space="preserve"
       style="font-style:normal;font-weight:normal;font-size:18.75px;line-height:125%;font-family:sans-serif;letter-spacing:0px;word-spacing:0px;fill:#ffffff;fill-opacity:1;stroke:none;stroke-width:1px;stroke-linecap:butt;stroke-linejoin:miter;stroke-opacity:1"
       x="26.372252"
       y="969.70081"
       id="text4183"
       sodipodi:linespacing="125%"><tspan
         sodipodi:role="line"
         id="tspan4185"
         x="26.372252"
         y="969.70081">fota</tspan></text>
    <text
       xml:space="preserve"
       style="font-style:normal;font-weight:normal;font-size:6.3857379px;line-height:125%;font-family:sans-serif;letter-spacing:0px;word-spacing:0px;fill:#ffffff;fill-opacity:1;stroke:none;stroke-width:1px;stroke-linecap:butt;stroke-linejoin:miter;stroke-opacity:1"
       x="6.4079394"
       y="998.18256"
       id="text4183-9"
       sodipodi:linespacing="125%"><tspan
         sodipodi:role="line"
         id="tspan4185-4"
         x="6.4079394"
         y="998.18256">Tipo/subtipo</tspan></text>
    <text
       xml:space="preserve"
       style="font-style:normal;font-weight:normal;font-size:7.11304712px;line-height:125%;font-family:sans-serif;letter-spacing:0px;word-spacing:0px;fill:#ffffff;fill-opacity:1;stroke:none;stroke-width:1px;stroke-linecap:butt;stroke-linejoin:miter;stroke-opacity:1"
       x="5.4331007"
       y="1010.2234"
       id="text4183-4"
       sodipodi:linespacing="125%"><tspan
         sodipodi:role="line"
         id="tspan4185-5"
         x="5.4331007"
         y="1010.2234">Efeito/descrição</tspan></text>
    <text
       xml:space="preserve"
       style="font-style:normal;font-weight:normal;font-size:4.55339479px;line-height:125%;font-family:sans-serif;letter-spacing:0px;word-spacing:0px;fill:#ffffff;fill-opacity:1;stroke:none;stroke-width:1px;stroke-linecap:butt;stroke-linejoin:miter;stroke-opacity:1"
       x="82.351303"
       y="937.56879"
       id="text4183-4-4"
       sodipodi:linespacing="125%"><tspan
         sodipodi:role="line"
         id="tspan4185-5-9"
         x="82.351303"
         y="937.56879">x</tspan></text>
    <text
       xml:space="preserve"
       style="font-style:normal;font-weight:normal;font-size:5.14360046px;line-height:125%;font-family:sans-serif;letter-spacing:0px;word-spacing:0px;fill:#ffffff;fill-opacity:1;stroke:none;stroke-width:1px;stroke-linecap:butt;stroke-linejoin:miter;stroke-opacity:1"
       x="68.910416"
       y="845.44147"
       id="text4183-9-2"
       sodipodi:linespacing="125%"
       transform="scale(0.80548258,1.2414918)"><tspan
         sodipodi:role="line"
         id="tspan4185-4-8"
         x="68.910416"
         y="845.44147">atk/def</tspan></text>
    <rect
       style="fill:#009e00;fill-opacity:0.94219654;stroke:#c10000;stroke-width:0;stroke-linejoin:round;stroke-miterlimit:4;stroke-dasharray:none;stroke-opacity:1"
       id="rect4142-8"
       width="75.099991"
       height="4.9999909"
       x="5.0000048"
       y="934.36218" />
  </g>
</svg>
